{
    "KPlugin": {
        "Category": "Accessibility",
        "Description": "Magnify the entire desktop; activated with a keyboard shortcut",
        "Description[ar]": "كبّر كلّ سطح المكتب، تفعّل باختصار لوحة المفاتيح",
        "Description[bg]": "Увеличаване на целия работен плот, активирано с клавишна комбинация",
        "Description[ca@valencia]": "Amplia tot l'escriptori; activat amb una drecera de teclat",
        "Description[ca]": "Amplia tot l'escriptori; activat amb una drecera de teclat",
        "Description[da]": "Forstører hele skrivebordet; aktiveret med en tastaturgenvej",
        "Description[en_GB]": "Magnify the entire desktop; activated with a keyboard shortcut",
        "Description[es]": "Ampliar todo el escritorio; se activa con un atajo de teclado",
        "Description[eu]": "Handiagotu mahaigain osoa; teklatuko lasterbide batekin aktibatua",
        "Description[fr]": "Agrandir l'ensemble du bureau. Activé grâce à un raccourci clavier.",
        "Description[gl]": "Ampliar o escritorio; actívase cun atallo de teclado.",
        "Description[he]": "הגדלת המסך כולו, מופעל דרך צירוף מקשי מקלדת",
        "Description[ia]": "Aggrandi le integre scriptorio; activate con un via breve de claviero",
        "Description[is]": "Stækka allt skjáborðið; virkjað með flýtilykli",
        "Description[it]": "Ingrandisci l'intero desktop; attivato con una scorciatoia da tastiera",
        "Description[ka]": "მთელი სამუშაო მაგიდის გადიდება. აქტიურდება კლავიატურის მალსახმობით",
        "Description[lt]": "Padidinti visą darbalaukį; aktyvinama naudojant sparčiuosius klavišus",
        "Description[lv]": "Tuvina visu darbvirsmu; ieslēdz ar tastatūras saīsni",
        "Description[nl]": "Het gehele bureaublad vergroten; geactiveerd met een sneltoets",
        "Description[nn]": "Forstørr heile skrivebordet – slått på/av med snøggtast",
        "Description[pl]": "Powiększa cały pulpit; uruchamiane skrótem klawiszowym",
        "Description[sl]": "Povečaj celotno namizje; aktivirano z bližnjico tipkovnice",
        "Description[sv]": "Förstora hela skrivbordet, aktiveras med en snabbtangent",
        "Description[tr]": "Tüm masaüstünü büyüt; klavye kısayoluyla etkinleştirilir",
        "Description[uk]": "Збільшення цілої стільниці; активується клавіатурним скороченням",
        "Description[x-test]": "xxMagnify the entire desktop; activated with a keyboard shortcutxx",
        "Description[zh_CN]": "放大整个桌面；使用键盘快捷键激活",
        "Description[zh_TW]": "放大整個桌面——需要用鍵盤快捷鍵觸發",
        "EnabledByDefault": true,
        "License": "GPL",
        "Name": "Zoom",
        "Name[ar]": "تكبير",
        "Name[ast]": "Zoom",
        "Name[az]": "Miqyas",
        "Name[be]": "Маштабаванне",
        "Name[bg]": "Мащаб",
        "Name[ca@valencia]": "Zoom",
        "Name[ca]": "Zoom",
        "Name[cs]": "Zvětšení",
        "Name[da]": "Zoom",
        "Name[de]": "Vergrößerung",
        "Name[en_GB]": "Zoom",
        "Name[eo]": "Zomi",
        "Name[es]": "Ampliación",
        "Name[et]": "Suurendus",
        "Name[eu]": "Handiagotu",
        "Name[fi]": "Lähennys",
        "Name[fr]": "Zoom",
        "Name[gl]": "Ampliación",
        "Name[he]": "תקריב",
        "Name[hu]": "Nagyítás",
        "Name[ia]": "Zoom",
        "Name[id]": "Zoom",
        "Name[is]": "Aðdráttur",
        "Name[it]": "Ingrandimento",
        "Name[ja]": "ズーム",
        "Name[ka]": "გადიდება",
        "Name[ko]": "확대/축소",
        "Name[lt]": "Didinimas",
        "Name[lv]": "Pietuvināt",
        "Name[nl]": "Zoomen",
        "Name[nn]": "Forstørr skrivebordet",
        "Name[pl]": "Powiększanie",
        "Name[pt]": "Ampliação",
        "Name[pt_BR]": "Zoom",
        "Name[ro]": "Apropiere",
        "Name[ru]": "Масштаб",
        "Name[sk]": "Lupa",
        "Name[sl]": "Povečava",
        "Name[sv]": "Zooma",
        "Name[ta]": "உருப்பெருக்கம்",
        "Name[tr]": "Yakınlaştır",
        "Name[uk]": "Масштабування",
        "Name[vi]": "Thu phóng",
        "Name[x-test]": "xxZoomxx",
        "Name[zh_CN]": "缩放",
        "Name[zh_TW]": "縮放"
    },
    "X-KDE-ConfigModule": "kwin_zoom_config",
    "org.kde.kwin.effect": {
        "exclusiveGroup": "magnifiers",
        "video": "https://files.kde.org/plasma/kwin/effect-videos/zoom.ogv"
    }
}
